mux4to1_u2to1/mux4to1_u2to1.sim/sim_1/behav/xsim/simulate.log
Time resolution is 1 ps
the values of a= 0, b = 0, c = 0, d = 0, s1 = 0, s2 = 0, out = 0
the values of a= 0, b = 0, c = 0, d = 0, s1 = 0, s2 = 1, out = 0
the values of a= 0, b = 0, c = 0, d = 0, s1 = 1, s2 = 0, out = 0
the values of a= 0, b = 0, c = 0, d = 0, s1 = 1, s2 = 1, out = 0
the values of a= 0, b = 0, c = 0, d = 1, s1 = 0, s2 = 0, out = 0
the values of a= 0, b = 0, c = 0, d = 1, s1 = 0, s2 = 1, out = 0
the values of a= 0, b = 0, c = 0, d = 1, s1 = 1, s2 = 0, out = 0
the values of a= 0, b = 0, c = 0, d = 1, s1 = 1, s2 = 1, out = 1
the values of a= 0, b = 0, c = 1, d = 0, s1 = 0, s2 = 0, out = 0
the values of a= 0, b = 0, c = 1, d = 0, s1 = 0, s2 = 1, out = 1
the values of a= 0, b = 0, c = 1, d = 0, s1 = 1, s2 = 0, out = 0
the values of a= 0, b = 0, c = 1, d = 0, s1 = 1, s2 = 1, out = 0
the values of a= 0, b = 0, c = 1, d = 1, s1 = 0, s2 = 0, out = 0
the values of a= 0, b = 0, c = 1, d = 1, s1 = 0, s2 = 1, out = 1
the values of a= 0, b = 0, c = 1, d = 1, s1 = 1, s2 = 0, out = 0
the values of a= 0, b = 0, c = 1, d = 1, s1 = 1, s2 = 1, out = 1
the values of a= 0, b = 1, c = 0, d = 0, s1 = 0, s2 = 0, out = 0
the values of a= 0, b = 1, c = 0, d = 0, s1 = 0, s2 = 1, out = 0
the values of a= 0, b = 1, c = 0, d = 0, s1 = 1, s2 = 0, out = 1
the values of a= 0, b = 1, c = 0, d = 0, s1 = 1, s2 = 1, out = 0
the values of a= 0, b = 1, c = 0, d = 1, s1 = 0, s2 = 0, out = 0
the values of a= 0, b = 1, c = 0, d = 1, s1 = 0, s2 = 1, out = 0
the values of a= 0, b = 1, c = 0, d = 1, s1 = 1, s2 = 0, out = 1
the values of a= 0, b = 1, c = 0, d = 1, s1 = 1, s2 = 1, out = 1
the values of a= 0, b = 1, c = 1, d = 0, s1 = 0, s2 = 0, out = 0
the values of a= 0, b = 1, c = 1, d = 0, s1 = 0, s2 = 1, out = 1
the values of a= 0, b = 1, c = 1, d = 0, s1 = 1, s2 = 0, out = 1
the values of a= 0, b = 1, c = 1, d = 0, s1 = 1, s2 = 1, out = 0
the values of a= 0, b = 1, c = 1, d = 1, s1 = 0, s2 = 0, out = 0
the values of a= 0, b = 1, c = 1, d = 1, s1 = 0, s2 = 1, out = 1
the values of a= 0, b = 1, c = 1, d = 1, s1 = 1, s2 = 0, out = 1
the values of a= 0, b = 1, c = 1, d = 1, s1 = 1, s2 = 1, out = 1
the values of a= 1, b = 0, c = 0, d = 0, s1 = 0, s2 = 0, out = 1
the values of a= 1, b = 0, c = 0, d = 0, s1 = 0, s2 = 1, out = 0
the values of a= 1, b = 0, c = 0, d = 0, s1 = 1, s2 = 0, out = 0
the values of a= 1, b = 0, c = 0, d = 0, s1 = 1, s2 = 1, out = 0
the values of a= 1, b = 0, c = 0, d = 1, s1 = 0, s2 = 0, out = 1
the values of a= 1, b = 0, c = 0, d = 1, s1 = 0, s2 = 1, out = 0
the values of a= 1, b = 0, c = 0, d = 1, s1 = 1, s2 = 0, out = 0
the values of a= 1, b = 0, c = 0, d = 1, s1 = 1, s2 = 1, out = 1
the values of a= 1, b = 0, c = 1, d = 0, s1 = 0, s2 = 0, out = 1
the values of a= 1, b = 0, c = 1, d = 0, s1 = 0, s2 = 1, out = 1
the values of a= 1, b = 0, c = 1, d = 0, s1 = 1, s2 = 0, out = 0
the values of a= 1, b = 0, c = 1, d = 0, s1 = 1, s2 = 1, out = 0
the values of a= 1, b = 0, c = 1, d = 1, s1 = 0, s2 = 0, out = 1
the values of a= 1, b = 0, c = 1, d = 1, s1 = 0, s2 = 1, out = 1
the values of a= 1, b = 0, c = 1, d = 1, s1 = 1, s2 = 0, out = 0
the values of a= 1, b = 0, c = 1, d = 1, s1 = 1, s2 = 1, out = 1
the values of a= 1, b = 1, c = 0, d = 0, s1 = 0, s2 = 0, out = 1
the values of a= 1, b = 1, c = 0, d = 0, s1 = 0, s2 = 1, out = 0
the values of a= 1, b = 1, c = 0, d = 0, s1 = 1, s2 = 0, out = 1
the values of a= 1, b = 1, c = 0, d = 0, s1 = 1, s2 = 1, out = 0
the values of a= 1, b = 1, c = 0, d = 1, s1 = 0, s2 = 0, out = 1
the values of a= 1, b = 1, c = 0, d = 1, s1 = 0, s2 = 1, out = 0
the values of a= 1, b = 1, c = 0, d = 1, s1 = 1, s2 = 0, out = 1
the values of a= 1, b = 1, c = 0, d = 1, s1 = 1, s2 = 1, out = 1
the values of a= 1, b = 1, c = 1, d = 0, s1 = 0, s2 = 0, out = 1
the values of a= 1, b = 1, c = 1, d = 0, s1 = 0, s2 = 1, out = 1
the values of a= 1, b = 1, c = 1, d = 0, s1 = 1, s2 = 0, out = 1
the values of a= 1, b = 1, c = 1, d = 0, s1 = 1, s2 = 1, out = 0
the values of a= 1, b = 1, c = 1, d = 1, s1 = 0, s2 = 0, out = 1
the values of a= 1, b = 1, c = 1, d = 1, s1 = 0, s2 = 1, out = 1
the values of a= 1, b = 1, c = 1, d = 1, s1 = 1, s2 = 0, out = 1
the values of a= 1, b = 1, c = 1, d = 1, s1 = 1, s2 = 1, out = 1
$finish called at time : 660 ns : File "C:/Users/DK2012TX/verilogprojs/mux4to1_u2to1/mux4to1_u2to1.srcs/sim_1/new/tb_mux4to1.v" Line 36
